# Blender MTL File: 'world_labyrinth_v11.blend'
# Material Count: 4

newmtl BOOK_1
Ns 225.000000
Ka 1.000000 1.000000 1.000000
Kd 0.800000 0.212896 0.040117
Ks 0.500000 0.500000 0.500000
Ke 0.000000 0.000000 0.000000
Ni 1.450000
d 1.000000
illum 2

newmtl BOOK_2
Ns 225.000000
Ka 1.000000 1.000000 1.000000
Kd 0.211299 0.800000 0.680195
Ks 0.500000 0.500000 0.500000
Ke 0.000000 0.000000 0.000000
Ni 1.450000
d 1.000000
illum 2

newmtl BOOK_3
Ns 225.000000
Ka 1.000000 1.000000 1.000000
Kd 0.199521 0.262626 0.800000
Ks 0.500000 0.500000 0.500000
Ke 0.000000 0.000000 0.000000
Ni 1.450000
d 1.000000
illum 2

newmtl WOOD
Ns 225.000000
Ka 1.000000 1.000000 1.000000
Kd 0.257221 0.113413 0.039829
Ks 0.500000 0.500000 0.500000
Ke 0.000000 0.000000 0.000000
Ni 1.450000
d 1.000000
illum 2
