# Blender v2.91.0 OBJ File: 'world_labyrinth_v11.blend'
# www.blender.org
mtllib PILE_7.mtl
o BOOK.087_Cube.226
v 0.240375 1.179721 5.063498
v -0.019992 1.182036 5.496643
v -0.095089 1.179721 4.861847
v -0.355457 1.182036 5.294992
v 0.240679 1.308570 5.062993
v -0.019688 1.310885 5.496137
v -0.094785 1.308570 4.861341
v -0.355153 1.310885 5.294486
v -0.094850 1.281215 4.861449
v -0.095025 1.207076 4.861740
v -0.355392 1.209390 5.294885
v -0.355217 1.283530 5.294593
v 0.240440 1.207076 5.063391
v 0.240615 1.281215 5.063100
v -0.019753 1.283530 5.496244
v -0.019928 1.209390 5.496535
v -0.073541 1.179721 4.874800
v -0.333909 1.182036 5.307945
v -0.073237 1.308570 4.874294
v -0.333605 1.310885 5.307439
v -0.333669 1.283530 5.307546
v -0.333844 1.209390 5.307837
v -0.073477 1.207076 4.874693
v -0.073302 1.281215 4.874402
v -0.026394 1.283435 5.468007
v -0.026569 1.209295 5.468298
v -0.322964 1.283435 5.289736
v -0.323139 1.209295 5.290028
v 0.210285 1.207189 5.074270
v 0.210460 1.281329 5.073979
v -0.086284 1.207189 4.895999
v -0.086109 1.281329 4.895708
v 0.256319 0.744259 5.134094
v -0.094555 0.746574 5.497814
v -0.025377 0.744259 4.862347
v -0.376252 0.746574 5.226067
v 0.256729 0.873109 5.133669
v -0.094146 0.875424 5.497389
v -0.024968 0.873109 4.861922
v -0.375842 0.875424 5.225642
v -0.025055 0.845754 4.862012
v -0.025290 0.771614 4.862256
v -0.376165 0.773929 5.225976
v -0.375929 0.848069 5.225732
v 0.256406 0.771614 5.134004
v 0.256642 0.845754 5.133759
v -0.094233 0.848069 5.497479
v -0.094468 0.773929 5.497724
v -0.007283 0.744259 4.879802
v -0.358158 0.746574 5.243522
v -0.006873 0.873109 4.879377
v -0.357748 0.875424 5.243097
v -0.357835 0.848069 5.243187
v -0.358071 0.773929 5.243432
v -0.007196 0.771614 4.879712
v -0.006960 0.845754 4.879467
v -0.094372 0.847974 5.468472
v -0.094608 0.773834 5.468717
v -0.343408 0.847974 5.228232
v -0.343644 0.773834 5.228477
v 0.224580 0.771728 5.137843
v 0.224816 0.845868 5.137599
v -0.024456 0.771728 4.897603
v -0.024220 0.845868 4.897358
v 0.269549 0.655178 4.978123
v -0.069260 0.658190 5.541762
v -0.065915 0.655178 4.776473
v -0.404724 0.658190 5.340111
v 0.269759 0.744255 4.977774
v -0.069049 0.747267 5.541413
v -0.065705 0.744255 4.776123
v -0.404514 0.747267 5.339762
v -0.065750 0.725344 4.776197
v -0.065871 0.674089 4.776398
v -0.404680 0.677101 5.340037
v -0.404559 0.728356 5.339836
v 0.269594 0.674089 4.978049
v 0.269715 0.725344 4.977848
v -0.069094 0.728356 5.541487
v -0.069215 0.677101 5.541688
v -0.044367 0.655178 4.789425
v -0.383176 0.658190 5.353064
v -0.044157 0.744255 4.789075
v -0.382966 0.747267 5.352715
v -0.383011 0.728356 5.352788
v -0.383132 0.677101 5.352990
v -0.044323 0.674089 4.789351
v -0.044202 0.725344 4.789150
v -0.072510 0.728232 5.507884
v -0.072631 0.676978 5.508085
v -0.369080 0.728232 5.329613
v -0.369201 0.676978 5.329814
v 0.235581 0.674237 4.995347
v 0.235702 0.725492 4.995146
v -0.060989 0.674237 4.817076
v -0.060868 0.725492 4.816875
v 0.268343 0.437257 4.936480
v 0.110193 0.439571 5.416473
v -0.103405 0.437257 4.813994
v -0.261556 0.439572 5.293988
v 0.268528 0.566106 4.935919
v 0.110377 0.568421 5.415913
v -0.103221 0.566106 4.813434
v -0.261371 0.568421 5.293427
v -0.103260 0.538751 4.813553
v -0.103366 0.464611 4.813875
v -0.261517 0.466926 5.293869
v -0.261410 0.541066 5.293546
v 0.268382 0.464611 4.936361
v 0.268489 0.538751 4.936038
v 0.110338 0.541066 5.416031
v 0.110232 0.466926 5.416354
v -0.079527 0.437257 4.821862
v -0.237677 0.439571 5.301856
v -0.079342 0.566106 4.821301
v -0.237492 0.568421 5.301295
v -0.237532 0.541066 5.301414
v -0.237638 0.466926 5.301736
v -0.079488 0.464612 4.821743
v -0.079381 0.538751 4.821421
v 0.097618 0.540971 5.389962
v 0.097511 0.466831 5.390285
v -0.231029 0.540971 5.281678
v -0.231135 0.466831 5.282001
v 0.241380 0.464725 4.953638
v 0.241486 0.538865 4.953315
v -0.087267 0.464725 4.845354
v -0.087161 0.538865 4.845031
v 0.268926 0.566105 4.979155
v -0.024738 0.568716 5.467691
v -0.066538 0.566105 4.777504
v -0.360202 0.568716 5.266040
v 0.269136 0.655182 4.978806
v -0.024527 0.657793 5.467341
v -0.066328 0.655182 4.777154
v -0.359992 0.657793 5.265691
v -0.066373 0.636271 4.777229
v -0.066494 0.585016 4.777430
v -0.360158 0.587627 5.265966
v -0.360037 0.638882 5.265765
v 0.268971 0.585016 4.979081
v 0.269092 0.636271 4.978879
v -0.024572 0.638882 5.467416
v -0.024693 0.587627 5.467617
v -0.044990 0.566105 4.790457
v -0.338654 0.568716 5.278993
v -0.044780 0.655182 4.790107
v -0.338444 0.657793 5.278643
v -0.338489 0.638882 5.278718
v -0.338610 0.587627 5.278919
v -0.044946 0.585016 4.790382
v -0.044825 0.636271 4.790181
v -0.029844 0.638774 5.436901
v -0.029965 0.587520 5.437102
v -0.326414 0.638774 5.258630
v -0.326535 0.587520 5.258832
v 0.237179 0.585145 4.992684
v 0.237299 0.636399 4.992483
v -0.059391 0.585145 4.814414
v -0.059270 0.636399 4.814212
v 0.303896 1.090639 5.057437
v -0.152687 1.093651 5.530736
v 0.022200 1.090639 4.785689
v -0.434384 1.093651 5.258988
v 0.304180 1.179715 5.057143
v -0.152404 1.182727 5.530442
v 0.022483 1.179715 4.785396
v -0.434100 1.182727 5.258695
v 0.022423 1.160804 4.785458
v 0.022260 1.109550 4.785627
v -0.434323 1.112562 5.258926
v -0.434160 1.163816 5.258757
v 0.303956 1.109550 5.057374
v 0.304119 1.160804 5.057206
v -0.152464 1.163816 5.530505
v -0.152627 1.112562 5.530674
v 0.040294 1.090638 4.803144
v -0.416289 1.093651 5.276443
v 0.040578 1.179715 4.802851
v -0.416006 1.182727 5.276150
v -0.416066 1.163816 5.276212
v -0.416229 1.112562 5.276381
v 0.040354 1.109550 4.803082
v 0.040517 1.160804 4.802913
v -0.148257 1.163692 5.496992
v -0.148420 1.112438 5.497161
v -0.397293 1.163692 5.256752
v -0.397456 1.112438 5.256921
v 0.266930 1.109698 5.066604
v 0.267093 1.160952 5.066435
v 0.017895 1.109698 4.826364
v 0.018058 1.160952 4.826195
v 0.268343 0.872717 4.936480
v 0.110193 0.875032 5.416473
v -0.103405 0.872717 4.813994
v -0.261556 0.875032 5.293988
v 0.268528 1.001566 4.935919
v 0.110378 1.003881 5.415912
v -0.103221 1.001566 4.813434
v -0.261371 1.003881 5.293427
v -0.103260 0.974211 4.813553
v -0.103366 0.900072 4.813875
v -0.261516 0.902387 5.293869
v -0.261410 0.976526 5.293546
v 0.268382 0.900072 4.936360
v 0.268489 0.974211 4.936038
v 0.110338 0.976526 5.416031
v 0.110232 0.902387 5.416354
v -0.079527 0.872717 4.821862
v -0.237677 0.875032 5.301855
v -0.079342 1.001566 4.821301
v -0.237492 1.003881 5.301295
v -0.237532 0.976526 5.301414
v -0.237638 0.902387 5.301736
v -0.079487 0.900072 4.821743
v -0.079381 0.974211 4.821420
v 0.097618 0.976431 5.389962
v 0.097512 0.902291 5.390284
v -0.231029 0.976431 5.281678
v -0.231135 0.902291 5.282000
v 0.241380 0.900186 4.953638
v 0.241486 0.974325 4.953315
v -0.087267 0.900186 4.845354
v -0.087161 0.974325 4.845031
v 0.268926 1.001566 4.979155
v -0.024738 1.004177 5.467691
v -0.066538 1.001566 4.777504
v -0.360202 1.004177 5.266040
v 0.269137 1.090642 4.978805
v -0.024527 1.093253 5.467341
v -0.066328 1.090642 4.777154
v -0.359992 1.093253 5.265690
v -0.066373 1.071731 4.777228
v -0.066494 1.020477 4.777430
v -0.360157 1.023088 5.265966
v -0.360037 1.074342 5.265765
v 0.268971 1.020477 4.979081
v 0.269092 1.071731 4.978879
v -0.024572 1.074342 5.467416
v -0.024693 1.023088 5.467617
v -0.044990 1.001566 4.790457
v -0.338654 1.004177 5.278993
v -0.044780 1.090642 4.790107
v -0.338444 1.093253 5.278643
v -0.338489 1.074342 5.278718
v -0.338609 1.023088 5.278919
v -0.044946 1.020477 4.790382
v -0.044825 1.071731 4.790181
v -0.029844 1.074235 5.436901
v -0.029965 1.022981 5.437102
v -0.326414 1.074235 5.258630
v -0.326535 1.022981 5.258832
v 0.237179 1.020605 4.992684
v 0.237300 1.071860 4.992483
v -0.059391 1.020605 4.814414
v -0.059270 1.071860 4.814212
vt 0.375000 0.227024
vt 0.625000 0.227024
vt 0.625000 0.250000
vt 0.375000 0.250000
vt 0.375000 0.446925
vt 0.625000 0.446925
vt 0.625000 0.500000
vt 0.375000 0.500000
vt 0.375000 0.522976
vt 0.625000 0.522976
vt 0.625000 0.750000
vt 0.375000 0.750000
vt 0.375000 0.946925
vt 0.625000 0.946925
vt 0.625000 1.000000
vt 0.375000 1.000000
vt 0.321925 0.522976
vt 0.321925 0.750000
vt 0.821925 0.522976
vt 0.875000 0.522976
vt 0.875000 0.750000
vt 0.821925 0.750000
vt 0.678075 0.522976
vt 0.678075 0.750000
vt 0.678075 0.522976
vt 0.678075 0.750000
vt 0.125000 0.522976
vt 0.178075 0.522976
vt 0.178075 0.750000
vt 0.125000 0.750000
vt 0.625000 0.803075
vt 0.375000 0.803075
vt 0.625000 0.303075
vt 0.375000 0.303075
vt 0.178075 0.500000
vt 0.321925 0.500000
vt 0.125000 0.500000
vt 0.678075 0.500000
vt 0.821925 0.500000
vt 0.875000 0.500000
vt 0.375000 0.000000
vt 0.625000 0.000000
vt 0.821925 0.522976
vt 0.821925 0.750000
vt 0.178075 0.522976
vt 0.321925 0.522976
vt 0.321925 0.750000
vt 0.178075 0.750000
vt 0.375000 0.803075
vt 0.625000 0.803075
vt 0.625000 0.946925
vt 0.375000 0.946925
vt 0.375000 0.227024
vt 0.625000 0.227024
vt 0.625000 0.250000
vt 0.375000 0.250000
vt 0.375000 0.446925
vt 0.625000 0.446925
vt 0.625000 0.500000
vt 0.375000 0.500000
vt 0.375000 0.522976
vt 0.625000 0.522976
vt 0.625000 0.750000
vt 0.375000 0.750000
vt 0.375000 0.946925
vt 0.625000 0.946925
vt 0.625000 1.000000
vt 0.375000 1.000000
vt 0.321925 0.522976
vt 0.321925 0.750000
vt 0.821925 0.522976
vt 0.875000 0.522976
vt 0.875000 0.750000
vt 0.821925 0.750000
vt 0.678075 0.522976
vt 0.678075 0.750000
vt 0.678075 0.522976
vt 0.678075 0.750000
vt 0.125000 0.522976
vt 0.178075 0.522976
vt 0.178075 0.750000
vt 0.125000 0.750000
vt 0.625000 0.803075
vt 0.375000 0.803075
vt 0.625000 0.303075
vt 0.375000 0.303075
vt 0.178075 0.500000
vt 0.321925 0.500000
vt 0.125000 0.500000
vt 0.678075 0.500000
vt 0.821925 0.500000
vt 0.875000 0.500000
vt 0.375000 0.000000
vt 0.625000 0.000000
vt 0.821925 0.522976
vt 0.821925 0.750000
vt 0.178075 0.522976
vt 0.321925 0.522976
vt 0.321925 0.750000
vt 0.178075 0.750000
vt 0.375000 0.803075
vt 0.625000 0.803075
vt 0.625000 0.946925
vt 0.375000 0.946925
vt 0.375000 0.227024
vt 0.625000 0.227024
vt 0.625000 0.250000
vt 0.375000 0.250000
vt 0.375000 0.446925
vt 0.625000 0.446925
vt 0.625000 0.500000
vt 0.375000 0.500000
vt 0.375000 0.522976
vt 0.625000 0.522976
vt 0.625000 0.750000
vt 0.375000 0.750000
vt 0.375000 0.946925
vt 0.625000 0.946925
vt 0.625000 1.000000
vt 0.375000 1.000000
vt 0.321925 0.522976
vt 0.321925 0.750000
vt 0.821925 0.522976
vt 0.875000 0.522976
vt 0.875000 0.750000
vt 0.821925 0.750000
vt 0.678075 0.522976
vt 0.678075 0.750000
vt 0.678075 0.522976
vt 0.678075 0.750000
vt 0.125000 0.522976
vt 0.178075 0.522976
vt 0.178075 0.750000
vt 0.125000 0.750000
vt 0.625000 0.803075
vt 0.375000 0.803075
vt 0.625000 0.303075
vt 0.375000 0.303075
vt 0.178075 0.500000
vt 0.321925 0.500000
vt 0.125000 0.500000
vt 0.678075 0.500000
vt 0.821925 0.500000
vt 0.875000 0.500000
vt 0.375000 0.000000
vt 0.625000 0.000000
vt 0.821925 0.522976
vt 0.821925 0.750000
vt 0.178075 0.522976
vt 0.321925 0.522976
vt 0.321925 0.750000
vt 0.178075 0.750000
vt 0.375000 0.803075
vt 0.625000 0.803075
vt 0.625000 0.946925
vt 0.375000 0.946925
vt 0.375000 0.227024
vt 0.625000 0.227024
vt 0.625000 0.250000
vt 0.375000 0.250000
vt 0.375000 0.446925
vt 0.625000 0.446925
vt 0.625000 0.500000
vt 0.375000 0.500000
vt 0.375000 0.522976
vt 0.625000 0.522976
vt 0.625000 0.750000
vt 0.375000 0.750000
vt 0.375000 0.946925
vt 0.625000 0.946925
vt 0.625000 1.000000
vt 0.375000 1.000000
vt 0.321925 0.522976
vt 0.321925 0.750000
vt 0.821925 0.522976
vt 0.875000 0.522976
vt 0.875000 0.750000
vt 0.821925 0.750000
vt 0.678075 0.522976
vt 0.678075 0.750000
vt 0.678075 0.522976
vt 0.678075 0.750000
vt 0.125000 0.522976
vt 0.178075 0.522976
vt 0.178075 0.750000
vt 0.125000 0.750000
vt 0.625000 0.803075
vt 0.375000 0.803075
vt 0.625000 0.303075
vt 0.375000 0.303075
vt 0.178075 0.500000
vt 0.321925 0.500000
vt 0.125000 0.500000
vt 0.678075 0.500000
vt 0.821925 0.500000
vt 0.875000 0.500000
vt 0.375000 0.000000
vt 0.625000 0.000000
vt 0.821925 0.522976
vt 0.821925 0.750000
vt 0.178075 0.522976
vt 0.321925 0.522976
vt 0.321925 0.750000
vt 0.178075 0.750000
vt 0.375000 0.803075
vt 0.625000 0.803075
vt 0.625000 0.946925
vt 0.375000 0.946925
vt 0.375000 0.227024
vt 0.625000 0.227024
vt 0.625000 0.250000
vt 0.375000 0.250000
vt 0.375000 0.446925
vt 0.625000 0.446925
vt 0.625000 0.500000
vt 0.375000 0.500000
vt 0.375000 0.522976
vt 0.625000 0.522976
vt 0.625000 0.750000
vt 0.375000 0.750000
vt 0.375000 0.946925
vt 0.625000 0.946925
vt 0.625000 1.000000
vt 0.375000 1.000000
vt 0.321925 0.522976
vt 0.321925 0.750000
vt 0.821925 0.522976
vt 0.875000 0.522976
vt 0.875000 0.750000
vt 0.821925 0.750000
vt 0.678075 0.522976
vt 0.678075 0.750000
vt 0.678075 0.522976
vt 0.678075 0.750000
vt 0.125000 0.522976
vt 0.178075 0.522976
vt 0.178075 0.750000
vt 0.125000 0.750000
vt 0.625000 0.803075
vt 0.375000 0.803075
vt 0.625000 0.303075
vt 0.375000 0.303075
vt 0.178075 0.500000
vt 0.321925 0.500000
vt 0.125000 0.500000
vt 0.678075 0.500000
vt 0.821925 0.500000
vt 0.875000 0.500000
vt 0.375000 0.000000
vt 0.625000 0.000000
vt 0.821925 0.522976
vt 0.821925 0.750000
vt 0.178075 0.522976
vt 0.321925 0.522976
vt 0.321925 0.750000
vt 0.178075 0.750000
vt 0.375000 0.803075
vt 0.625000 0.803075
vt 0.625000 0.946925
vt 0.375000 0.946925
vt 0.375000 0.227024
vt 0.625000 0.227024
vt 0.625000 0.250000
vt 0.375000 0.250000
vt 0.375000 0.446925
vt 0.625000 0.446925
vt 0.625000 0.500000
vt 0.375000 0.500000
vt 0.375000 0.522976
vt 0.625000 0.522976
vt 0.625000 0.750000
vt 0.375000 0.750000
vt 0.375000 0.946925
vt 0.625000 0.946925
vt 0.625000 1.000000
vt 0.375000 1.000000
vt 0.321925 0.522976
vt 0.321925 0.750000
vt 0.821925 0.522976
vt 0.875000 0.522976
vt 0.875000 0.750000
vt 0.821925 0.750000
vt 0.678075 0.522976
vt 0.678075 0.750000
vt 0.678075 0.522976
vt 0.678075 0.750000
vt 0.125000 0.522976
vt 0.178075 0.522976
vt 0.178075 0.750000
vt 0.125000 0.750000
vt 0.625000 0.803075
vt 0.375000 0.803075
vt 0.625000 0.303075
vt 0.375000 0.303075
vt 0.178075 0.500000
vt 0.321925 0.500000
vt 0.125000 0.500000
vt 0.678075 0.500000
vt 0.821925 0.500000
vt 0.875000 0.500000
vt 0.375000 0.000000
vt 0.625000 0.000000
vt 0.821925 0.522976
vt 0.821925 0.750000
vt 0.178075 0.522976
vt 0.321925 0.522976
vt 0.321925 0.750000
vt 0.178075 0.750000
vt 0.375000 0.803075
vt 0.625000 0.803075
vt 0.625000 0.946925
vt 0.375000 0.946925
vt 0.375000 0.227024
vt 0.625000 0.227024
vt 0.625000 0.250000
vt 0.375000 0.250000
vt 0.375000 0.446925
vt 0.625000 0.446925
vt 0.625000 0.500000
vt 0.375000 0.500000
vt 0.375000 0.522976
vt 0.625000 0.522976
vt 0.625000 0.750000
vt 0.375000 0.750000
vt 0.375000 0.946925
vt 0.625000 0.946925
vt 0.625000 1.000000
vt 0.375000 1.000000
vt 0.321925 0.522976
vt 0.321925 0.750000
vt 0.821925 0.522976
vt 0.875000 0.522976
vt 0.875000 0.750000
vt 0.821925 0.750000
vt 0.678075 0.522976
vt 0.678075 0.750000
vt 0.678075 0.522976
vt 0.678075 0.750000
vt 0.125000 0.522976
vt 0.178075 0.522976
vt 0.178075 0.750000
vt 0.125000 0.750000
vt 0.625000 0.803075
vt 0.375000 0.803075
vt 0.625000 0.303075
vt 0.375000 0.303075
vt 0.178075 0.500000
vt 0.321925 0.500000
vt 0.125000 0.500000
vt 0.678075 0.500000
vt 0.821925 0.500000
vt 0.875000 0.500000
vt 0.375000 0.000000
vt 0.625000 0.000000
vt 0.821925 0.522976
vt 0.821925 0.750000
vt 0.178075 0.522976
vt 0.321925 0.522976
vt 0.321925 0.750000
vt 0.178075 0.750000
vt 0.375000 0.803075
vt 0.625000 0.803075
vt 0.625000 0.946925
vt 0.375000 0.946925
vt 0.375000 0.227024
vt 0.625000 0.227024
vt 0.625000 0.250000
vt 0.375000 0.250000
vt 0.375000 0.446925
vt 0.625000 0.446925
vt 0.625000 0.500000
vt 0.375000 0.500000
vt 0.375000 0.522976
vt 0.625000 0.522976
vt 0.625000 0.750000
vt 0.375000 0.750000
vt 0.375000 0.946925
vt 0.625000 0.946925
vt 0.625000 1.000000
vt 0.375000 1.000000
vt 0.321925 0.522976
vt 0.321925 0.750000
vt 0.821925 0.522976
vt 0.875000 0.522976
vt 0.875000 0.750000
vt 0.821925 0.750000
vt 0.678075 0.522976
vt 0.678075 0.750000
vt 0.678075 0.522976
vt 0.678075 0.750000
vt 0.125000 0.522976
vt 0.178075 0.522976
vt 0.178075 0.750000
vt 0.125000 0.750000
vt 0.625000 0.803075
vt 0.375000 0.803075
vt 0.625000 0.303075
vt 0.375000 0.303075
vt 0.178075 0.500000
vt 0.321925 0.500000
vt 0.125000 0.500000
vt 0.678075 0.500000
vt 0.821925 0.500000
vt 0.875000 0.500000
vt 0.375000 0.000000
vt 0.625000 0.000000
vt 0.821925 0.522976
vt 0.821925 0.750000
vt 0.178075 0.522976
vt 0.321925 0.522976
vt 0.321925 0.750000
vt 0.178075 0.750000
vt 0.375000 0.803075
vt 0.625000 0.803075
vt 0.625000 0.946925
vt 0.375000 0.946925
vn -0.0024 -1.0000 0.0039
vn -0.8571 -0.0000 -0.5152
vn 0.0024 1.0000 -0.0039
vn 0.8571 0.0000 0.5152
vn 0.5152 -0.0046 -0.8571
vn -0.5152 0.0046 0.8571
vn -0.0032 -1.0000 0.0033
vn -0.7197 0.0000 -0.6943
vn 0.0032 1.0000 -0.0033
vn 0.7197 -0.0000 0.6943
vn 0.6943 -0.0046 -0.7197
vn -0.6943 0.0046 0.7197
vn -0.0014 -1.0000 0.0044
vn -0.9498 -0.0000 -0.3129
vn 0.0014 1.0000 -0.0044
vn 0.9498 -0.0000 0.3129
vn 0.3129 -0.0046 -0.9498
vn -0.3129 0.0046 0.9498
vn -0.0014 -1.0000 0.0043
vn -0.3130 0.0046 0.9498
vn 0.0014 1.0000 -0.0043
usemtl BOOK_1
s off
f 17/1/1 18/2/1 4/3/1 3/4/1
f 9/5/2 12/6/2 8/7/2 7/8/2
f 19/9/3 20/10/3 6/11/3 5/12/3
f 13/13/4 16/14/4 2/15/4 1/16/4
f 24/17/5 19/9/5 5/12/5 14/18/5
f 22/19/6 18/20/6 2/21/6 16/22/6
f 20/10/6 21/23/6 15/24/6 6/11/6
f 15/24/1 21/23/1 27/25/1 25/26/1
f 17/27/5 23/28/5 13/29/5 1/30/5
f 5/12/4 6/11/4 15/31/4 14/32/4
f 3/4/2 4/3/2 11/33/2 10/34/2
f 10/34/2 11/33/2 12/6/2 9/5/2
f 10/35/5 9/36/5 24/17/5 23/28/5
f 3/37/5 10/35/5 23/28/5 17/27/5
f 12/38/6 11/39/6 22/19/6 21/23/6
f 8/7/6 12/38/6 21/23/6 20/10/6
f 11/39/6 4/40/6 18/20/6 22/19/6
f 9/36/5 7/8/5 19/9/5 24/17/5
f 7/8/3 8/7/3 20/10/3 19/9/3
f 1/41/1 2/42/1 18/2/1 17/1/1
f 27/25/6 28/43/6 26/44/6 25/26/6
f 21/23/4 22/19/4 28/43/4 27/25/4
f 22/19/3 16/22/3 26/44/3 28/43/3
f 31/45/5 32/46/5 30/47/5 29/48/5
f 13/29/3 23/28/3 31/45/3 29/48/3
f 23/28/4 24/17/4 32/46/4 31/45/4
f 24/17/1 14/18/1 30/47/1 32/46/1
f 30/49/4 25/50/4 26/51/4 29/52/4
f 14/32/1 15/31/1 25/50/1 30/49/1
f 16/14/3 13/13/3 29/52/3 26/51/3
f 81/53/1 82/54/1 68/55/1 67/56/1
f 73/57/2 76/58/2 72/59/2 71/60/2
f 83/61/3 84/62/3 70/63/3 69/64/3
f 77/65/4 80/66/4 66/67/4 65/68/4
f 88/69/5 83/61/5 69/64/5 78/70/5
f 86/71/6 82/72/6 66/73/6 80/74/6
f 84/62/6 85/75/6 79/76/6 70/63/6
f 79/76/1 85/75/1 91/77/1 89/78/1
f 81/79/5 87/80/5 77/81/5 65/82/5
f 69/64/4 70/63/4 79/83/4 78/84/4
f 67/56/2 68/55/2 75/85/2 74/86/2
f 74/86/2 75/85/2 76/58/2 73/57/2
f 74/87/5 73/88/5 88/69/5 87/80/5
f 67/89/5 74/87/5 87/80/5 81/79/5
f 76/90/6 75/91/6 86/71/6 85/75/6
f 72/59/6 76/90/6 85/75/6 84/62/6
f 75/91/6 68/92/6 82/72/6 86/71/6
f 73/88/5 71/60/5 83/61/5 88/69/5
f 71/60/3 72/59/3 84/62/3 83/61/3
f 65/93/1 66/94/1 82/54/1 81/53/1
f 91/77/6 92/95/6 90/96/6 89/78/6
f 85/75/4 86/71/4 92/95/4 91/77/4
f 86/71/3 80/74/3 90/96/3 92/95/3
f 95/97/5 96/98/5 94/99/5 93/100/5
f 77/81/3 87/80/3 95/97/3 93/100/3
f 87/80/4 88/69/4 96/98/4 95/97/4
f 88/69/1 78/70/1 94/99/1 96/98/1
f 94/101/4 89/102/4 90/103/4 93/104/4
f 78/84/1 79/83/1 89/102/1 94/101/1
f 80/66/3 77/65/3 93/104/3 90/103/3
f 241/105/1 242/106/1 228/107/1 227/108/1
f 233/109/2 236/110/2 232/111/2 231/112/2
f 243/113/3 244/114/3 230/115/3 229/116/3
f 237/117/4 240/118/4 226/119/4 225/120/4
f 248/121/5 243/113/5 229/116/5 238/122/5
f 246/123/6 242/124/6 226/125/6 240/126/6
f 244/114/6 245/127/6 239/128/6 230/115/6
f 239/128/1 245/127/1 251/129/1 249/130/1
f 241/131/5 247/132/5 237/133/5 225/134/5
f 229/116/4 230/115/4 239/135/4 238/136/4
f 227/108/2 228/107/2 235/137/2 234/138/2
f 234/138/2 235/137/2 236/110/2 233/109/2
f 234/139/5 233/140/5 248/121/5 247/132/5
f 227/141/5 234/139/5 247/132/5 241/131/5
f 236/142/6 235/143/6 246/123/6 245/127/6
f 232/111/6 236/142/6 245/127/6 244/114/6
f 235/143/6 228/144/6 242/124/6 246/123/6
f 233/140/5 231/112/5 243/113/5 248/121/5
f 231/112/3 232/111/3 244/114/3 243/113/3
f 225/145/1 226/146/1 242/106/1 241/105/1
f 251/129/6 252/147/6 250/148/6 249/130/6
f 245/127/4 246/123/4 252/147/4 251/129/4
f 246/123/3 240/126/3 250/148/3 252/147/3
f 255/149/5 256/150/5 254/151/5 253/152/5
f 237/133/3 247/132/3 255/149/3 253/152/3
f 247/132/4 248/121/4 256/150/4 255/149/4
f 248/121/1 238/122/1 254/151/1 256/150/1
f 254/153/4 249/154/4 250/155/4 253/156/4
f 238/136/1 239/135/1 249/154/1 254/153/1
f 240/118/3 237/117/3 253/156/3 250/155/3
usemtl BOOK_2
f 49/157/7 50/158/7 36/159/7 35/160/7
f 41/161/8 44/162/8 40/163/8 39/164/8
f 51/165/9 52/166/9 38/167/9 37/168/9
f 45/169/10 48/170/10 34/171/10 33/172/10
f 56/173/11 51/165/11 37/168/11 46/174/11
f 54/175/12 50/176/12 34/177/12 48/178/12
f 52/166/12 53/179/12 47/180/12 38/167/12
f 47/180/7 53/179/7 59/181/7 57/182/7
f 49/183/11 55/184/11 45/185/11 33/186/11
f 37/168/10 38/167/10 47/187/10 46/188/10
f 35/160/8 36/159/8 43/189/8 42/190/8
f 42/190/8 43/189/8 44/162/8 41/161/8
f 42/191/11 41/192/11 56/173/11 55/184/11
f 35/193/11 42/191/11 55/184/11 49/183/11
f 44/194/12 43/195/12 54/175/12 53/179/12
f 40/163/12 44/194/12 53/179/12 52/166/12
f 43/195/12 36/196/12 50/176/12 54/175/12
f 41/192/11 39/164/11 51/165/11 56/173/11
f 39/164/9 40/163/9 52/166/9 51/165/9
f 33/197/7 34/198/7 50/158/7 49/157/7
f 59/181/12 60/199/12 58/200/12 57/182/12
f 53/179/10 54/175/10 60/199/10 59/181/10
f 54/175/9 48/178/9 58/200/9 60/199/9
f 63/201/11 64/202/11 62/203/11 61/204/11
f 45/185/9 55/184/9 63/201/9 61/204/9
f 55/184/10 56/173/10 64/202/10 63/201/10
f 56/173/7 46/174/7 62/203/7 64/202/7
f 62/205/10 57/206/10 58/207/10 61/208/10
f 46/188/7 47/187/7 57/206/7 62/205/7
f 48/170/9 45/169/9 61/208/9 58/207/9
f 113/209/13 114/210/13 100/211/13 99/212/13
f 105/213/14 108/214/14 104/215/14 103/216/14
f 115/217/15 116/218/15 102/219/15 101/220/15
f 109/221/16 112/222/16 98/223/16 97/224/16
f 120/225/17 115/217/17 101/220/17 110/226/17
f 118/227/18 114/228/18 98/229/18 112/230/18
f 116/218/18 117/231/18 111/232/18 102/219/18
f 111/232/19 117/231/19 123/233/19 121/234/19
f 113/235/17 119/236/17 109/237/17 97/238/17
f 101/220/16 102/219/16 111/239/16 110/240/16
f 99/212/14 100/211/14 107/241/14 106/242/14
f 106/242/14 107/241/14 108/214/14 105/213/14
f 106/243/17 105/244/17 120/225/17 119/236/17
f 99/245/17 106/243/17 119/236/17 113/235/17
f 108/246/18 107/247/18 118/227/18 117/231/18
f 104/215/18 108/246/18 117/231/18 116/218/18
f 107/247/20 100/248/20 114/228/20 118/227/20
f 105/244/17 103/216/17 115/217/17 120/225/17
f 103/216/15 104/215/15 116/218/15 115/217/15
f 97/249/13 98/250/13 114/210/13 113/209/13
f 123/233/18 124/251/18 122/252/18 121/234/18
f 117/231/16 118/227/16 124/251/16 123/233/16
f 118/227/15 112/230/15 122/252/15 124/251/15
f 127/253/17 128/254/17 126/255/17 125/256/17
f 109/237/21 119/236/21 127/253/21 125/256/21
f 119/236/16 120/225/16 128/254/16 127/253/16
f 120/225/13 110/226/13 126/255/13 128/254/13
f 126/257/16 121/258/16 122/259/16 125/260/16
f 110/240/13 111/239/13 121/258/13 126/257/13
f 112/222/15 109/221/15 125/260/15 122/259/15
f 177/261/7 178/262/7 164/263/7 163/264/7
f 169/265/8 172/266/8 168/267/8 167/268/8
f 179/269/9 180/270/9 166/271/9 165/272/9
f 173/273/10 176/274/10 162/275/10 161/276/10
f 184/277/11 179/269/11 165/272/11 174/278/11
f 182/279/12 178/280/12 162/281/12 176/282/12
f 180/270/12 181/283/12 175/284/12 166/271/12
f 175/284/7 181/283/7 187/285/7 185/286/7
f 177/287/11 183/288/11 173/289/11 161/290/11
f 165/272/10 166/271/10 175/291/10 174/292/10
f 163/264/8 164/263/8 171/293/8 170/294/8
f 170/294/8 171/293/8 172/266/8 169/265/8
f 170/295/11 169/296/11 184/277/11 183/288/11
f 163/297/11 170/295/11 183/288/11 177/287/11
f 172/298/12 171/299/12 182/279/12 181/283/12
f 168/267/12 172/298/12 181/283/12 180/270/12
f 171/299/12 164/300/12 178/280/12 182/279/12
f 169/296/11 167/268/11 179/269/11 184/277/11
f 167/268/9 168/267/9 180/270/9 179/269/9
f 161/301/7 162/302/7 178/262/7 177/261/7
f 187/285/12 188/303/12 186/304/12 185/286/12
f 181/283/10 182/279/10 188/303/10 187/285/10
f 182/279/9 176/282/9 186/304/9 188/303/9
f 191/305/11 192/306/11 190/307/11 189/308/11
f 173/289/9 183/288/9 191/305/9 189/308/9
f 183/288/10 184/277/10 192/306/10 191/305/10
f 184/277/7 174/278/7 190/307/7 192/306/7
f 190/309/10 185/310/10 186/311/10 189/312/10
f 174/292/7 175/291/7 185/310/7 190/309/7
f 176/274/9 173/273/9 189/312/9 186/311/9
usemtl BOOK_3
f 145/313/1 146/314/1 132/315/1 131/316/1
f 137/317/2 140/318/2 136/319/2 135/320/2
f 147/321/3 148/322/3 134/323/3 133/324/3
f 141/325/4 144/326/4 130/327/4 129/328/4
f 152/329/5 147/321/5 133/324/5 142/330/5
f 150/331/6 146/332/6 130/333/6 144/334/6
f 148/322/6 149/335/6 143/336/6 134/323/6
f 143/336/1 149/335/1 155/337/1 153/338/1
f 145/339/5 151/340/5 141/341/5 129/342/5
f 133/324/4 134/323/4 143/343/4 142/344/4
f 131/316/2 132/315/2 139/345/2 138/346/2
f 138/346/2 139/345/2 140/318/2 137/317/2
f 138/347/5 137/348/5 152/329/5 151/340/5
f 131/349/5 138/347/5 151/340/5 145/339/5
f 140/350/6 139/351/6 150/331/6 149/335/6
f 136/319/6 140/350/6 149/335/6 148/322/6
f 139/351/6 132/352/6 146/332/6 150/331/6
f 137/348/5 135/320/5 147/321/5 152/329/5
f 135/320/3 136/319/3 148/322/3 147/321/3
f 129/353/1 130/354/1 146/314/1 145/313/1
f 155/337/6 156/355/6 154/356/6 153/338/6
f 149/335/4 150/331/4 156/355/4 155/337/4
f 150/331/3 144/334/3 154/356/3 156/355/3
f 159/357/5 160/358/5 158/359/5 157/360/5
f 141/341/3 151/340/3 159/357/3 157/360/3
f 151/340/4 152/329/4 160/358/4 159/357/4
f 152/329/1 142/330/1 158/359/1 160/358/1
f 158/361/4 153/362/4 154/363/4 157/364/4
f 142/344/1 143/343/1 153/362/1 158/361/1
f 144/326/3 141/325/3 157/364/3 154/363/3
f 209/365/19 210/366/19 196/367/19 195/368/19
f 201/369/14 204/370/14 200/371/14 199/372/14
f 211/373/15 212/374/15 198/375/15 197/376/15
f 205/377/16 208/378/16 194/379/16 193/380/16
f 216/381/17 211/373/17 197/376/17 206/382/17
f 214/383/18 210/384/18 194/385/18 208/386/18
f 212/374/18 213/387/18 207/388/18 198/375/18
f 207/388/13 213/387/13 219/389/13 217/390/13
f 209/391/17 215/392/17 205/393/17 193/394/17
f 197/376/16 198/375/16 207/395/16 206/396/16
f 195/368/14 196/367/14 203/397/14 202/398/14
f 202/398/14 203/397/14 204/370/14 201/369/14
f 202/399/17 201/400/17 216/381/17 215/392/17
f 195/401/17 202/399/17 215/392/17 209/391/17
f 204/402/18 203/403/18 214/383/18 213/387/18
f 200/371/18 204/402/18 213/387/18 212/374/18
f 203/403/20 196/404/20 210/384/20 214/383/20
f 201/400/17 199/372/17 211/373/17 216/381/17
f 199/372/21 200/371/21 212/374/21 211/373/21
f 193/405/13 194/406/13 210/366/13 209/365/13
f 219/389/18 220/407/18 218/408/18 217/390/18
f 213/387/16 214/383/16 220/407/16 219/389/16
f 214/383/21 208/386/21 218/408/21 220/407/21
f 223/409/17 224/410/17 222/411/17 221/412/17
f 205/393/21 215/392/21 223/409/21 221/412/21
f 215/392/16 216/381/16 224/410/16 223/409/16
f 216/381/13 206/382/13 222/411/13 224/410/13
f 222/413/16 217/414/16 218/415/16 221/416/16
f 206/396/13 207/395/13 217/414/13 222/413/13
f 208/378/21 205/377/21 221/416/21 218/415/21
