# Blender MTL File: 'world_labyrinth_v11.blend'
# Material Count: 1

newmtl WOOD
Ns 225.000000
Ka 1.000000 1.000000 1.000000
Kd 0.257221 0.113413 0.039829
Ks 0.500000 0.500000 0.500000
Ke 0.000000 0.000000 0.000000
Ni 1.450000
d 1.000000
illum 2
