# Blender v2.91.0 OBJ File: 'VERTIGO_WORLD_v2.blend'
# www.blender.org
mtllib VERTIGO_FLOOR_6.mtl
o Cube.011_Cube.013
v -26.647161 -263.493896 0.544997
v -26.647161 -0.025675 0.544997
v -26.647161 -263.493896 -1.717217
v -26.647161 -0.025675 -1.717217
v -24.384947 -263.493896 0.544997
v -24.384947 -0.025675 0.544997
v -24.384947 -263.493896 -1.717217
v -24.384947 -0.025675 -1.717217
vt 0.375000 0.000000
vt 0.625000 0.000000
vt 0.625000 0.250000
vt 0.375000 0.250000
vt 0.625000 0.500000
vt 0.375000 0.500000
vt 0.625000 0.750000
vt 0.375000 0.750000
vt 0.625000 1.000000
vt 0.375000 1.000000
vt 0.125000 0.500000
vt 0.125000 0.750000
vt 0.875000 0.500000
vt 0.875000 0.750000
vn -1.0000 0.0000 0.0000
vn 0.0000 0.0000 -1.0000
vn 1.0000 0.0000 0.0000
vn 0.0000 0.0000 1.0000
vn 0.0000 -1.0000 0.0000
vn 0.0000 1.0000 0.0000
usemtl SURFACE
s off
f 1/1/1 2/2/1 4/3/1 3/4/1
f 3/4/2 4/3/2 8/5/2 7/6/2
f 7/6/3 8/5/3 6/7/3 5/8/3
f 5/8/4 6/7/4 2/9/4 1/10/4
f 3/11/5 7/6/5 5/8/5 1/12/5
f 8/5/6 4/13/6 2/14/6 6/7/6
