# Blender MTL File: 'COOL_v3.blend'
# Material Count: 1

newmtl COLUMN
Ns 225.000000
Ka 1.000000 1.000000 1.000000
Kd 0.800000 0.741295 0.480657
Ks 0.500000 0.500000 0.500000
Ke 0.000000 0.000000 0.000000
Ni 1.450000
d 1.000000
illum 2
