# Blender v2.91.0 OBJ File: 'COOL_v3.blend'
# www.blender.org
mtllib LEAF.mtl
o Cube.019_Cube.068
v 0.132207 1.395281 5.779547
v 0.119782 1.333633 6.014567
v -0.039576 1.258632 5.842072
v 0.022450 1.484360 5.940374
v 0.256585 1.178621 5.960813
v -0.071287 1.147422 5.669967
v 0.324317 1.436987 5.910797
v 0.074375 1.392408 6.065454
v 0.292965 1.303124 5.954296
v 0.165284 1.070127 5.866536
v 0.041424 1.131003 5.932700
v 0.259229 1.388772 5.660881
v -0.011470 1.125688 5.839830
v -0.034889 1.369141 5.684862
v 0.362215 1.207557 5.691147
v -0.086980 1.442258 5.724515
v -0.009035 1.255974 5.976752
v 0.061262 1.181502 6.042282
v 0.213880 1.267551 5.972000
v 0.203916 1.190958 5.549380
v 0.221874 1.406666 5.564014
v 0.284493 1.461120 5.791236
v 0.065630 1.027131 5.912074
v 0.080116 1.243981 5.591969
v 0.253498 1.387930 5.972590
v 0.034724 1.030214 5.835312
v 0.029483 1.477299 5.780842
v 0.206074 1.121200 5.750675
v 0.410805 1.264724 5.895149
v 0.248996 1.475856 5.704847
v -0.054788 1.284045 5.904452
v 0.103794 1.094952 5.723529
v 0.227787 1.473486 6.006423
v 0.304368 1.378969 5.743591
v 0.091418 1.299928 6.037580
v -0.128366 1.387679 5.839215
v 0.341759 1.365379 5.828820
v 0.208020 1.056207 5.958437
v 0.154443 1.331873 6.022937
v 0.304671 1.320242 5.603930
v 0.089671 1.152699 5.600114
v 0.136340 1.239159 6.013696
v 0.268118 1.528445 5.887341
v 0.283509 1.165960 5.721432
v 0.365438 1.139403 5.897865
v 0.183120 1.503882 5.923130
v 0.107032 1.522291 5.751578
v 0.244304 1.178593 5.636897
v 0.106161 1.457156 5.952451
v -0.061162 1.219325 5.784136
v -0.036730 1.298127 5.658301
v -0.050723 1.438917 5.812280
v 0.284303 1.098641 5.922994
v 0.169398 1.486312 5.586571
v -0.112297 1.230056 5.692599
v 0.224330 1.101332 5.843821
v 0.103634 1.443884 5.627567
v -0.145517 1.309628 5.734948
v 0.162918 1.275999 5.560847
v -0.054634 1.127957 5.742074
v 0.024878 1.420251 5.984020
v 0.013181 1.191730 5.955229
v 0.231983 1.309862 5.546949
v 0.190646 1.556277 5.716464
v 0.095553 1.098112 6.016454
v 0.337536 1.295506 5.715736
v 0.401471 1.194952 5.775659
v 0.298135 1.144508 5.802969
v 0.126536 1.362306 5.581979
v -0.004080 1.215190 5.623913
v 0.026641 1.268526 6.057744
v -0.098484 1.292212 5.838553
v 0.377068 1.348387 5.920793
v 0.048844 1.319896 5.614967
v 0.331572 1.222689 5.924531
v 0.323083 1.220227 5.606588
v 0.007068 1.029854 5.762566
v -0.047141 1.361885 6.009648
v -0.011944 1.426384 5.897217
v 0.044064 1.410816 5.654443
v 0.150657 1.131272 5.984843
v 0.149653 1.137224 5.680781
v 0.383620 1.278171 5.822525
v 0.146550 1.510148 5.836231
v -0.007332 1.484196 5.694639
v 0.071195 1.459561 5.864882
v 0.228915 1.541077 5.802810
v -0.028062 1.203279 5.871506
v 0.071784 1.526165 5.663425
v 0.150023 1.437267 6.039122
v -0.085909 1.374692 5.923950
v 0.008723 1.337844 6.060171
v 0.127346 1.015326 5.984782
v -0.175572 1.400514 5.751890
v -0.031020 1.066432 5.643227
v 0.287517 1.504802 5.954280
v 0.442279 1.181769 5.863599
v 0.152997 1.574164 5.625461
v 0.283850 1.232934 5.521835
v 0.324355 1.363155 5.598277
v 0.311930 1.301507 5.833297
v 0.152572 1.226506 5.660802
v 0.214598 1.452234 5.759105
v 0.315489 1.216101 5.758935
v 0.303064 1.154453 5.993956
v 0.143707 1.079452 5.821460
v 0.205732 1.305180 5.919763
v 0.040240 1.340999 5.945742
v 0.169691 1.135896 5.926656
v 0.061133 1.250461 5.737276
v -0.023300 1.136536 5.947885
vt 0.375000 0.250000
vt 0.625000 0.750000
vt 0.375000 0.750000
vt 0.375000 1.000000
vt 0.125000 0.500000
vt 0.125000 0.750000
vt 0.000000 0.000000
vt 0.000000 0.000000
vt 0.000000 0.000000
vt 0.000000 0.000000
vt 0.000000 0.000000
vt 0.000000 0.000000
vt 0.000000 0.000000
vt 0.000000 0.000000
vt 0.000000 0.000000
vt 0.000000 0.000000
vt 0.000000 0.000000
vt 0.000000 0.000000
vt 0.000000 0.000000
vt 0.000000 0.000000
vt 0.000000 0.000000
vt 0.000000 0.000000
vt 0.000000 0.000000
vt 0.000000 0.000000
vt 0.000000 0.000000
vt 0.000000 0.000000
vt 0.000000 0.000000
vt 0.000000 0.000000
vt 0.000000 0.000000
vt 0.000000 0.000000
vt 0.000000 0.000000
vt 0.000000 0.000000
vt 0.000000 0.000000
vt 0.000000 0.000000
vt 0.000000 0.000000
vt 0.000000 0.000000
vt 0.000000 0.000000
vt 0.000000 0.000000
vt 0.000000 0.000000
vt 0.000000 0.000000
vt 0.000000 0.000000
vt 0.000000 0.000000
vt 0.000000 0.000000
vt 0.000000 0.000000
vt 0.000000 0.000000
vt 0.000000 0.000000
vt 0.000000 0.000000
vt 0.000000 0.000000
vt 0.000000 0.000000
vt 0.000000 0.000000
vt 0.000000 0.000000
vt 0.000000 0.000000
vt 0.000000 0.000000
vt 0.000000 0.000000
vt 0.000000 0.000000
vt 0.000000 0.000000
vt 0.000000 0.000000
vt 0.000000 0.000000
vt 0.000000 0.000000
vt 0.000000 0.000000
vt 0.000000 0.000000
vt 0.000000 0.000000
vt 0.000000 0.000000
vt 0.000000 0.000000
vt 0.000000 0.000000
vt 0.000000 0.000000
vt 0.000000 0.000000
vt 0.000000 0.000000
vt 0.000000 0.000000
vt 0.000000 0.000000
vt 0.000000 0.000000
vt 0.000000 0.000000
vt 0.000000 0.000000
vt 0.000000 0.000000
vt 0.000000 0.000000
vt 0.000000 0.000000
vt 0.000000 0.000000
vt 0.000000 0.000000
vt 0.000000 0.000000
vt 0.000000 0.000000
vt 0.000000 0.000000
vt 0.000000 0.000000
vt 0.000000 0.000000
vt 0.000000 0.000000
vt 0.000000 0.000000
vt 0.000000 0.000000
vt 0.000000 0.000000
vt 0.000000 0.000000
vt 0.000000 0.000000
vt 0.000000 0.000000
vt 0.000000 0.000000
vt 0.000000 0.000000
vt 0.000000 0.000000
vt 0.000000 0.000000
vt 0.000000 0.000000
vt 0.000000 0.000000
vt 0.000000 0.000000
vt 0.000000 0.000000
vt 0.000000 0.000000
vt 0.000000 0.000000
vt 0.000000 0.000000
vt 0.375000 0.250000
vt 0.625000 0.750000
vt 0.375000 0.750000
vt 0.375000 1.000000
vt 0.125000 0.500000
vt 0.125000 0.750000
vt 0.375000 0.250000
vt 0.625000 0.750000
vt 0.375000 0.750000
vt 0.375000 1.000000
vt 0.125000 0.500000
vt 0.125000 0.750000
vt 0.375000 0.250000
vt 0.625000 0.750000
vt 0.375000 0.750000
vt 0.375000 1.000000
vt 0.125000 0.500000
vt 0.125000 0.750000
vn -0.7055 -0.1110 0.7000
vn -0.6000 0.4523 -0.6599
vn 0.5715 -0.8007 -0.1798
vn 0.7761 0.5987 0.1981
vn 0.3542 -0.8866 -0.2973
vn 0.3331 -0.8243 -0.4578
vn 0.6887 -0.0877 0.7197
vn 0.3700 -0.8912 -0.2626
vn -0.8333 -0.4137 0.3667
vn -0.4400 0.1743 -0.8809
vn -0.3874 -0.0628 -0.9198
vn 0.8463 0.4772 -0.2367
vn 0.4964 -0.8482 -0.1845
vn 0.2143 -0.9486 -0.2329
vn 0.3440 -0.8890 -0.3023
vn 0.2164 -0.8990 -0.3808
vn 0.4218 -0.8017 -0.4234
vn -0.7854 -0.4023 0.4704
vn 0.3522 -0.8872 -0.2982
vn -0.4914 0.3163 -0.8115
vn 0.9051 0.1561 -0.3956
vn -0.3170 -0.1172 -0.9412
vn -0.8739 -0.2407 0.4223
vn 0.3630 -0.8273 -0.4287
vn 0.3544 -0.8867 -0.2969
vn -0.8310 -0.4562 0.3182
vn 0.4567 0.3635 0.8120
vn -0.7004 -0.4292 0.5703
vn 0.4041 -0.8304 -0.3835
vn 0.3549 -0.8857 -0.2993
vn -0.8336 -0.4203 0.3583
vn 0.8826 0.3388 -0.3259
vn -0.3801 0.2169 -0.8992
vn 0.3903 -0.8707 -0.2991
vn 0.8497 0.4364 -0.2958
vn -0.7997 -0.3655 0.4764
vn 0.3537 -0.8866 -0.2980
vn 0.3247 -0.9307 -0.1681
vn -0.5255 0.3100 -0.7923
vn -0.4248 0.0282 -0.9048
vn 0.3543 -0.8862 -0.2985
vn 0.3094 -0.9055 -0.2902
vn -0.8515 -0.5116 0.1150
vn -0.8310 -0.4226 0.3618
vn 0.3859 -0.8693 -0.3089
vn -0.5127 0.3191 -0.7971
vn -0.4871 0.1835 -0.8538
vn -0.8949 -0.2779 0.3492
vn -0.3872 0.1176 -0.9145
vn 0.2349 -0.9073 -0.3487
vn 0.3745 -0.8891 -0.2631
vn 0.3536 -0.8864 -0.2987
vn -0.5251 0.2981 -0.7972
vn 0.9267 0.3166 -0.2024
vn 0.3532 -0.8868 -0.2982
vn -0.3096 -0.1166 -0.9437
vn -0.3887 0.1168 -0.9139
vn -0.4262 0.1775 -0.8871
vn -0.8435 -0.3542 0.4039
vn -0.4791 0.1686 -0.8614
vn -0.5817 0.1251 -0.8037
vn -0.5302 0.2585 -0.8075
vn 0.8672 0.4339 -0.2443
vn 0.9158 0.2615 -0.3049
vn 0.8500 0.4300 -0.3044
vn -0.7719 -0.5836 0.2523
vn -0.2596 0.1371 -0.9560
vn -0.2364 0.1174 -0.9645
vn 0.8603 0.3775 -0.3426
vn -0.4346 0.1791 -0.8826
vn 0.2798 0.0387 0.9593
vn 0.5867 0.1996 -0.7848
vn 0.4685 0.5433 -0.6966
vn 0.7497 0.6393 -0.1710
vn -0.5156 0.1470 -0.8441
vn -0.3146 -0.0237 -0.9489
vn -0.7932 -0.3755 0.4794
vn -0.5613 -0.0058 -0.8276
vn -0.8907 -0.2813 0.3571
vn 0.8734 0.4434 -0.2014
vn 0.8757 0.3827 -0.2945
vn -0.2472 0.1431 -0.9583
vn -0.8394 -0.4099 0.3570
vn 0.6990 0.5793 -0.4192
vn 0.7779 0.5940 -0.2051
vn 0.7698 0.5927 -0.2368
vn 0.6721 0.6831 -0.2858
vn -0.4850 0.3267 -0.8112
vn 0.7848 0.5779 -0.2239
vn -0.4128 0.0487 -0.9095
vn 0.7865 0.3668 -0.4969
vn 0.5434 -0.1097 0.8322
vn -0.8821 -0.4644 0.0783
vn -0.6818 -0.6285 0.3742
vn 0.3635 -0.8844 -0.2927
vn -0.2552 0.1271 -0.9585
vn 0.8575 0.4784 -0.1891
vn 0.2339 -0.9086 -0.3460
vn 0.8484 0.3146 -0.4257
vn -0.5391 -0.0371 -0.8414
vn -0.6210 0.2422 -0.7454
vn -0.7709 -0.5186 0.3698
vn -0.7519 -0.2925 0.5908
vn -0.8544 -0.2664 0.4461
vn -0.7810 -0.5014 0.3724
vn -0.8754 -0.2768 0.3962
vn 0.9051 0.1561 -0.3955
vn 0.8637 0.3924 -0.3163
vn -0.9264 -0.2100 0.3124
vn 0.3995 -0.1176 0.9092
vn -0.8640 -0.3373 0.3737
vn -0.8661 -0.3697 0.3365
vn -0.8148 -0.3989 0.4207
vn -0.5497 0.2019 -0.8106
vn 0.8945 0.4128 -0.1716
vn 0.8600 0.3777 -0.3431
vn 0.3544 -0.8867 -0.2970
vn -0.8799 -0.3974 0.2604
vn 0.8709 0.4245 -0.2474
vn 0.8578 0.5095 -0.0686
vn -0.8840 -0.4606 0.0798
vn 0.4204 0.0021 0.9073
vn 0.5197 -0.0505 0.8529
vn -0.8156 -0.4166 0.4015
vn -0.2899 -0.0714 -0.9544
vn 0.7713 0.5755 -0.2717
vn -0.8043 -0.4957 0.3278
vn -0.8209 -0.4475 0.3548
vn 0.4235 -0.1772 0.8884
vn -0.8201 -0.4501 0.3533
vn 0.3158 -0.0428 0.9479
vn 0.4627 -0.1712 0.8698
vn 0.3380 -0.3040 0.8907
vn 0.5229 -0.2095 0.8263
vn 0.2994 -0.2014 0.9326
vn 0.5170 -0.1843 0.8359
vn -0.3206 0.8195 0.4750
vn 0.8675 0.4277 -0.2540
vn 0.3984 -0.0651 0.9149
vn 0.2960 -0.1518 0.9430
vn 0.4254 -0.1274 0.8960
vn 0.3242 -0.2177 0.9206
vn 0.2270 -0.0135 0.9738
vn 0.2555 -0.0888 0.9627
vn 0.5119 -0.1579 0.8444
vn 0.3908 -0.1237 0.9121
vn 0.3411 -0.0691 0.9375
vn 0.4509 -0.1006 0.8869
vn 0.3978 0.0760 0.9143
vn 0.1408 -0.2618 0.9548
vn -0.5590 0.6192 0.5515
vn 0.3599 -0.1486 0.9211
vn 0.6799 -0.0838 0.7285
vn 0.5235 -0.1764 0.8336
vn 0.3804 -0.0224 0.9246
vn 0.4587 -0.2041 0.8648
vn -0.1810 0.9569 0.2269
vn -0.2548 0.9234 0.2869
vn -0.3706 0.9096 0.1877
vn -0.1272 0.9079 0.3995
vn -0.3974 0.8960 0.1983
vn -0.4312 0.8342 0.3439
vn -0.2221 0.8715 0.4372
vn -0.1157 0.9256 0.3604
vn -0.2593 0.9250 0.2778
vn -0.5120 0.7849 0.3489
vn -0.2982 0.9349 0.1925
vn -0.4862 0.8327 0.2651
vn -0.2787 0.9423 0.1852
vn -0.4689 0.8447 0.2582
vn -0.2738 0.8979 0.3446
vn -0.4237 0.8816 0.2082
vn -0.3693 0.8475 0.3814
vn -0.3972 0.8961 0.1982
vn -0.2495 0.9354 0.2507
vn -0.3534 0.9206 0.1664
vn -0.3488 0.9106 0.2218
vn -0.3115 0.6771 0.6667
vn -0.4269 0.8325 0.3531
vn -0.2691 0.9274 0.2597
vn -0.3623 0.8593 0.3612
vn -0.4148 0.8757 0.2472
vn -0.4502 0.8694 0.2037
vn -0.4574 0.8255 0.3306
vn -0.4388 0.8377 0.3250
vn -0.2963 0.8941 0.3358
vn 0.4995 -0.1110 0.8592
vn -0.0571 -0.8684 -0.4926
vn -0.9326 0.2875 -0.2183
vn 0.8297 0.5376 -0.1503
vn 0.1092 -0.0235 0.9937
usemtl LEAF
s off
f 2/1/1 4/2/1 3/3/1
f 3/3/2 4/2/2 1/4/2
f 2/5/3 3/3/3 1/6/3
f 4/2/4 2/1/4 1/4/4
f 68/7/5 67/8/5 97/9/5
f 82/10/6 28/11/6 32/12/6
f 7/13/7 96/14/7 25/15/7
f 56/16/8 10/17/8 28/11/8
f 17/18/9 78/19/9 31/20/9
f 80/21/10 85/22/10 89/23/10
f 41/24/11 59/25/11 20/26/11
f 7/13/12 73/27/12 37/28/12
f 26/29/13 77/30/13 32/12/13
f 41/24/14 20/26/14 48/31/14
f 10/17/15 26/29/15 32/12/15
f 28/11/16 82/10/16 48/31/16
f 41/24/17 32/12/17 95/32/17
f 26/29/18 11/33/18 13/34/18
f 93/35/19 10/17/19 38/36/19
f 14/37/20 74/38/20 51/39/20
f 76/40/21 99/41/21 40/42/21
f 70/43/22 24/44/22 41/24/22
f 17/18/23 71/45/23 92/46/23
f 41/24/24 82/10/24 32/12/24
f 68/7/25 15/47/25 67/8/25
f 26/29/26 60/48/26 77/30/26
f 7/13/27 25/15/27 73/27/27
f 17/18/28 92/46/28 78/19/28
f 32/12/29 77/30/29 95/32/29
f 68/7/30 97/9/30 45/49/30
f 26/29/31 13/34/31 60/48/31
f 15/47/32 66/50/32 83/51/32
f 14/37/33 94/52/33 16/53/33
f 68/7/34 28/11/34 44/54/34
f 66/50/35 34/55/35 83/51/35
f 13/34/36 11/33/36 88/56/36
f 53/57/37 56/16/37 68/7/37
f 26/29/38 10/17/38 23/58/38
f 14/37/39 51/39/39 58/59/39
f 14/37/40 58/59/40 94/52/40
f 56/16/41 53/57/41 38/36/41
f 32/12/42 28/11/42 10/17/42
f 95/32/43 77/30/43 60/48/43
f 17/18/44 31/20/44 88/56/44
f 44/54/45 28/11/45 48/31/45
f 80/21/46 69/60/46 74/38/46
f 80/21/47 89/23/47 57/61/47
f 26/29/48 23/58/48 11/33/48
f 68/7/25 44/54/25 15/47/25
f 24/44/49 70/43/49 74/38/49
f 82/10/50 41/24/50 48/31/50
f 56/16/51 28/11/51 68/7/51
f 56/16/52 38/36/52 10/17/52
f 80/21/53 57/61/53 69/60/53
f 66/50/54 15/47/54 40/42/54
f 15/47/25 44/54/25 48/31/25
f 68/7/55 45/49/55 53/57/55
f 24/44/56 59/25/56 41/24/56
f 59/25/57 24/44/57 74/38/57
f 14/37/58 16/53/58 85/22/58
f 58/59/59 36/62/59 94/52/59
f 51/39/60 74/38/60 70/43/60
f 57/61/61 89/23/61 54/63/61
f 98/64/62 54/63/62 89/23/62
f 83/51/63 37/28/63 29/65/63
f 30/66/64 12/67/64 21/68/64
f 83/51/65 34/55/65 37/28/65
f 58/59/66 50/69/66 72/70/66
f 63/71/67 99/41/67 59/25/67
f 54/63/68 21/68/68 69/60/68
f 97/9/69 67/8/69 83/51/69
f 85/22/70 80/21/70 14/37/70
f 92/46/71 71/45/71 35/72/71
f 63/71/72 21/68/72 40/42/72
f 63/71/73 40/42/73 99/41/73
f 12/67/74 40/42/74 21/68/74
f 55/73/75 51/39/75 70/43/75
f 99/41/76 20/26/76 59/25/76
f 72/70/77 31/20/77 91/74/77
f 76/40/25 15/47/25 48/31/25
f 70/43/78 95/32/78 6/75/78
f 58/59/79 72/70/79 36/62/79
f 7/13/80 37/28/80 22/76/80
f 22/76/81 34/55/81 30/66/81
f 63/71/82 69/60/82 21/68/82
f 88/56/83 62/77/83 17/18/83
f 54/63/84 30/66/84 21/68/84
f 30/66/85 98/64/85 64/78/85
f 30/66/86 64/78/86 87/79/86
f 40/42/87 12/67/87 34/55/87
f 80/21/88 74/38/88 14/37/88
f 22/76/89 30/66/89 87/79/89
f 59/25/90 74/38/90 69/60/90
f 54/63/91 98/64/91 30/66/91
f 65/80/92 93/35/92 81/81/92
f 6/75/93 95/32/93 60/48/93
f 72/70/94 50/69/94 31/20/94
f 20/26/95 99/41/95 48/31/95
f 69/60/96 63/71/96 59/25/96
f 43/82/97 7/13/97 22/76/97
f 93/35/98 23/58/98 10/17/98
f 30/66/99 34/55/99 12/67/99
f 70/43/100 6/75/100 55/73/100
f 69/60/101 57/61/101 54/63/101
f 58/59/102 55/73/102 50/69/102
f 23/58/103 93/35/103 11/33/103
f 60/48/104 50/69/104 55/73/104
f 18/83/105 62/77/105 11/33/105
f 72/70/106 91/74/106 36/62/106
f 15/47/107 76/40/107 40/42/107
f 22/76/108 37/28/108 34/55/108
f 60/48/109 88/56/109 50/69/109
f 29/65/110 73/27/110 75/84/110
f 60/48/111 13/34/111 88/56/111
f 31/20/112 78/19/112 91/74/112
f 71/45/113 17/18/113 18/83/113
f 51/39/114 55/73/114 58/59/114
f 34/55/115 66/50/115 40/42/115
f 67/8/116 15/47/116 83/51/116
f 99/41/117 76/40/117 48/31/117
f 88/56/118 31/20/118 50/69/118
f 83/51/119 29/65/119 97/9/119
f 7/13/120 43/82/120 96/14/120
f 55/73/121 6/75/121 60/48/121
f 38/36/122 53/57/122 81/81/122
f 18/83/123 65/80/123 81/81/123
f 62/77/124 18/83/124 17/18/124
f 70/43/125 41/24/125 95/32/125
f 22/76/126 87/79/126 43/82/126
f 62/77/127 88/56/127 11/33/127
f 11/33/128 65/80/128 18/83/128
f 97/9/129 29/65/129 75/84/129
f 11/33/130 93/35/130 65/80/130
f 71/45/131 18/83/131 35/72/131
f 81/81/132 42/85/132 18/83/132
f 53/57/133 5/86/133 81/81/133
f 5/86/134 53/57/134 75/84/134
f 75/84/135 9/87/135 19/88/135
f 39/89/136 42/85/136 19/88/136
f 8/90/137 90/91/137 61/92/137
f 73/27/138 29/65/138 37/28/138
f 42/85/139 35/72/139 18/83/139
f 35/72/140 42/85/140 39/89/140
f 9/87/141 75/84/141 73/27/141
f 35/72/142 39/89/142 8/90/142
f 5/86/143 19/88/143 81/81/143
f 19/88/144 9/87/144 25/15/144
f 81/81/145 19/88/145 42/85/145
f 39/89/146 90/91/146 8/90/146
f 93/35/147 38/36/147 81/81/147
f 45/49/148 97/9/148 75/84/148
f 19/88/149 5/86/149 75/84/149
f 35/72/150 8/90/150 92/46/150
f 92/46/151 8/90/151 61/92/151
f 53/57/152 45/49/152 75/84/152
f 25/15/153 96/14/153 33/93/153
f 25/15/154 39/89/154 19/88/154
f 9/87/155 73/27/155 25/15/155
f 25/15/156 33/93/156 90/91/156
f 43/82/157 87/79/157 46/94/157
f 64/78/158 98/64/158 47/95/158
f 16/53/159 94/52/159 52/96/159
f 33/93/160 96/14/160 46/94/160
f 85/22/161 16/53/161 52/96/161
f 36/62/162 91/74/162 52/96/162
f 90/91/163 33/93/163 46/94/163
f 96/14/164 43/82/164 46/94/164
f 87/79/165 64/78/165 47/95/165
f 91/74/166 78/19/166 61/92/166
f 86/97/167 79/98/167 61/92/167
f 79/98/168 91/74/168 61/92/168
f 87/79/169 84/99/169 46/94/169
f 84/99/170 86/97/170 46/94/170
f 90/91/171 49/100/171 61/92/171
f 98/64/172 89/23/172 47/95/172
f 49/100/173 90/91/173 46/94/173
f 89/23/174 85/22/174 47/95/174
f 84/99/175 87/79/175 47/95/175
f 49/100/176 86/97/176 61/92/176
f 27/101/177 85/22/177 52/96/177
f 78/19/178 92/46/178 61/92/178
f 94/52/179 36/62/179 52/96/179
f 79/98/180 86/97/180 52/96/180
f 27/101/181 86/97/181 47/95/181
f 85/22/182 27/101/182 47/95/182
f 86/97/183 49/100/183 46/94/183
f 91/74/184 79/98/184 52/96/184
f 86/97/185 84/99/185 47/95/185
f 86/97/186 27/101/186 52/96/186
f 25/15/187 90/91/187 39/89/187
f 101/102/1 103/103/1 102/104/1
f 102/104/2 103/103/2 100/105/2
f 101/106/3 102/104/3 100/107/3
f 103/103/4 101/102/4 100/105/4
f 105/108/1 107/109/1 106/110/1
f 106/110/2 107/109/2 104/111/2
f 105/112/3 106/110/3 104/113/3
f 107/109/4 105/108/4 104/111/4
f 109/114/188 111/115/188 110/116/188
f 110/116/189 111/115/189 108/117/189
f 109/118/190 110/116/190 108/119/190
f 111/115/191 109/114/191 108/117/191
